"","Temp_Treatment","W_treatment","Temp_Treatment.W_treatment","Residuals","Variable"
"Pr(>F)",0.0075,9e-04,0.6117,NA,"Photo"
"Pr(>F)1",0.8046,0.001,0.4056,NA,"Rleaf_25"
"Pr(>F)2",0.0718,0.001,0.2106,NA,"Rleaf_insittu"
"Pr(>F)3",0.315,0.1946,0.381,NA,"Rstem_25"
"Pr(>F)4",0.7394,0.178,0.4163,NA,"Rstem_insitu"
"Pr(>F)5",0.5741,0.8401,0.8959,NA,"Rroot_25"
"Pr(>F)6",0.1594,0.8394,0.885,NA,"Rroot_insitu"
"Pr(>F)7",0.6402,0.0059,0.7124,NA,"totdm"
"Pr(>F)8",0,0,0.3704,NA,"AGR"
"Pr(>F)11",0,0,0.6824,NA,"RGR"
"Pr(>F)21",0.9945,0,0.995,NA,"LAR"
"Pr(>F)31",0.0933,0.4513,0.8644,NA,"NAR"
"Pr(>F)41",0.2005,0.319,0.638,NA,"LMF"
"Pr(>F)51",0.0072,0.0011,0.7775,NA,"SLA"
